…
#>  1 gdp_growth 2020-01-01 -1.50 
#>  2 gdp_growth 2020-04-01 -6.50 
#>  3 gdp_growth 2020-07-01  6.88 
#>  4 gdp_growth 2020-10-01  0.369
#>  5 gdp_growth 2021-01-01  0.442
#>  6 gdp_growth 2021-04-01  2.47 
#>  7 gdp_growth 2021-07-01  2.34 
#>  8 gdp_growth 2021-10-01  0.411
#>  9 gdp_growth 2022-01-01  0.105
#> 10 gdp_growth 2022-04-01  1.03 
#> 11 gdp_growth 2022-07-01  0.255
#> 12 gdp_growth 2022-10-01  0.102
#> 
#> $indic
#> # A tibble: 36 × 3
#>    id         time       values
#>    <chr>      <date>      <dbl>
#>  1 baro_small 2020-01-01  101. 
#>  2 baro_small 2020-02-01   99.2
#>  3 baro_small 2020-03-01   80.8
#>  4 baro_small 2020-04-01   53.8
#>  5 baro_small 2020-05-01   54.5
#>  6 baro_small 2020-06-01   89.6
#>  7 baro_small 2020-07-01  111. 
#>  8 baro_small 2020-08-01  117. 
#>  9 baro_small 2020-09-01  110. 
#> 10 baro_small 2020-10-01  112. 
#> # ℹ 26 more rows
…
